%TF.GenerationSoftware,KiCad,Pcbnew,8.0.0*%
%TF.CreationDate,2024-04-23T15:03:07+02:00*%
%TF.ProjectId,rotorCore,726f746f-7243-46f7-9265-2e6b69636164,rev?*%
%TF.SameCoordinates,Original*%
%TF.FileFunction,Legend,Bot*%
%TF.FilePolarity,Positive*%
%FSLAX46Y46*%
G04 Gerber Fmt 4.6, Leading zero omitted, Abs format (unit mm)*
G04 Created by KiCad (PCBNEW 8.0.0) date 2024-04-23 15:03:07*
%MOMM*%
%LPD*%
G01*
G04 APERTURE LIST*
%ADD10C,0.150000*%
%ADD11C,0.120000*%
G04 APERTURE END LIST*
D10*
X84403619Y-121358819D02*
X84975047Y-121358819D01*
X84689333Y-121358819D02*
X84689333Y-120358819D01*
X84689333Y-120358819D02*
X84784571Y-120501676D01*
X84784571Y-120501676D02*
X84879809Y-120596914D01*
X84879809Y-120596914D02*
X84975047Y-120644533D01*
X83784571Y-120358819D02*
X83689333Y-120358819D01*
X83689333Y-120358819D02*
X83594095Y-120406438D01*
X83594095Y-120406438D02*
X83546476Y-120454057D01*
X83546476Y-120454057D02*
X83498857Y-120549295D01*
X83498857Y-120549295D02*
X83451238Y-120739771D01*
X83451238Y-120739771D02*
X83451238Y-120977866D01*
X83451238Y-120977866D02*
X83498857Y-121168342D01*
X83498857Y-121168342D02*
X83546476Y-121263580D01*
X83546476Y-121263580D02*
X83594095Y-121311200D01*
X83594095Y-121311200D02*
X83689333Y-121358819D01*
X83689333Y-121358819D02*
X83784571Y-121358819D01*
X83784571Y-121358819D02*
X83879809Y-121311200D01*
X83879809Y-121311200D02*
X83927428Y-121263580D01*
X83927428Y-121263580D02*
X83975047Y-121168342D01*
X83975047Y-121168342D02*
X84022666Y-120977866D01*
X84022666Y-120977866D02*
X84022666Y-120739771D01*
X84022666Y-120739771D02*
X83975047Y-120549295D01*
X83975047Y-120549295D02*
X83927428Y-120454057D01*
X83927428Y-120454057D02*
X83879809Y-120406438D01*
X83879809Y-120406438D02*
X83784571Y-120358819D01*
X82832190Y-120358819D02*
X82736952Y-120358819D01*
X82736952Y-120358819D02*
X82641714Y-120406438D01*
X82641714Y-120406438D02*
X82594095Y-120454057D01*
X82594095Y-120454057D02*
X82546476Y-120549295D01*
X82546476Y-120549295D02*
X82498857Y-120739771D01*
X82498857Y-120739771D02*
X82498857Y-120977866D01*
X82498857Y-120977866D02*
X82546476Y-121168342D01*
X82546476Y-121168342D02*
X82594095Y-121263580D01*
X82594095Y-121263580D02*
X82641714Y-121311200D01*
X82641714Y-121311200D02*
X82736952Y-121358819D01*
X82736952Y-121358819D02*
X82832190Y-121358819D01*
X82832190Y-121358819D02*
X82927428Y-121311200D01*
X82927428Y-121311200D02*
X82975047Y-121263580D01*
X82975047Y-121263580D02*
X83022666Y-121168342D01*
X83022666Y-121168342D02*
X83070285Y-120977866D01*
X83070285Y-120977866D02*
X83070285Y-120739771D01*
X83070285Y-120739771D02*
X83022666Y-120549295D01*
X83022666Y-120549295D02*
X82975047Y-120454057D01*
X82975047Y-120454057D02*
X82927428Y-120406438D01*
X82927428Y-120406438D02*
X82832190Y-120358819D01*
X82070285Y-120692152D02*
X82070285Y-121358819D01*
X82070285Y-120787390D02*
X82022666Y-120739771D01*
X82022666Y-120739771D02*
X81927428Y-120692152D01*
X81927428Y-120692152D02*
X81784571Y-120692152D01*
X81784571Y-120692152D02*
X81689333Y-120739771D01*
X81689333Y-120739771D02*
X81641714Y-120835009D01*
X81641714Y-120835009D02*
X81641714Y-121358819D01*
X80832190Y-120835009D02*
X81165523Y-120835009D01*
X81165523Y-121358819D02*
X81165523Y-120358819D01*
X81165523Y-120358819D02*
X80689333Y-120358819D01*
X53667819Y-29186380D02*
X53667819Y-28614952D01*
X53667819Y-28900666D02*
X52667819Y-28900666D01*
X52667819Y-28900666D02*
X52810676Y-28805428D01*
X52810676Y-28805428D02*
X52905914Y-28710190D01*
X52905914Y-28710190D02*
X52953533Y-28614952D01*
X52667819Y-29805428D02*
X52667819Y-29900666D01*
X52667819Y-29900666D02*
X52715438Y-29995904D01*
X52715438Y-29995904D02*
X52763057Y-30043523D01*
X52763057Y-30043523D02*
X52858295Y-30091142D01*
X52858295Y-30091142D02*
X53048771Y-30138761D01*
X53048771Y-30138761D02*
X53286866Y-30138761D01*
X53286866Y-30138761D02*
X53477342Y-30091142D01*
X53477342Y-30091142D02*
X53572580Y-30043523D01*
X53572580Y-30043523D02*
X53620200Y-29995904D01*
X53620200Y-29995904D02*
X53667819Y-29900666D01*
X53667819Y-29900666D02*
X53667819Y-29805428D01*
X53667819Y-29805428D02*
X53620200Y-29710190D01*
X53620200Y-29710190D02*
X53572580Y-29662571D01*
X53572580Y-29662571D02*
X53477342Y-29614952D01*
X53477342Y-29614952D02*
X53286866Y-29567333D01*
X53286866Y-29567333D02*
X53048771Y-29567333D01*
X53048771Y-29567333D02*
X52858295Y-29614952D01*
X52858295Y-29614952D02*
X52763057Y-29662571D01*
X52763057Y-29662571D02*
X52715438Y-29710190D01*
X52715438Y-29710190D02*
X52667819Y-29805428D01*
X52667819Y-30757809D02*
X52667819Y-30853047D01*
X52667819Y-30853047D02*
X52715438Y-30948285D01*
X52715438Y-30948285D02*
X52763057Y-30995904D01*
X52763057Y-30995904D02*
X52858295Y-31043523D01*
X52858295Y-31043523D02*
X53048771Y-31091142D01*
X53048771Y-31091142D02*
X53286866Y-31091142D01*
X53286866Y-31091142D02*
X53477342Y-31043523D01*
X53477342Y-31043523D02*
X53572580Y-30995904D01*
X53572580Y-30995904D02*
X53620200Y-30948285D01*
X53620200Y-30948285D02*
X53667819Y-30853047D01*
X53667819Y-30853047D02*
X53667819Y-30757809D01*
X53667819Y-30757809D02*
X53620200Y-30662571D01*
X53620200Y-30662571D02*
X53572580Y-30614952D01*
X53572580Y-30614952D02*
X53477342Y-30567333D01*
X53477342Y-30567333D02*
X53286866Y-30519714D01*
X53286866Y-30519714D02*
X53048771Y-30519714D01*
X53048771Y-30519714D02*
X52858295Y-30567333D01*
X52858295Y-30567333D02*
X52763057Y-30614952D01*
X52763057Y-30614952D02*
X52715438Y-30662571D01*
X52715438Y-30662571D02*
X52667819Y-30757809D01*
X53001152Y-31519714D02*
X53667819Y-31519714D01*
X53096390Y-31519714D02*
X53048771Y-31567333D01*
X53048771Y-31567333D02*
X53001152Y-31662571D01*
X53001152Y-31662571D02*
X53001152Y-31805428D01*
X53001152Y-31805428D02*
X53048771Y-31900666D01*
X53048771Y-31900666D02*
X53144009Y-31948285D01*
X53144009Y-31948285D02*
X53667819Y-31948285D01*
X53144009Y-32757809D02*
X53144009Y-32424476D01*
X53667819Y-32424476D02*
X52667819Y-32424476D01*
X52667819Y-32424476D02*
X52667819Y-32900666D01*
X91640819Y-118086380D02*
X91640819Y-117514952D01*
X91640819Y-117800666D02*
X90640819Y-117800666D01*
X90640819Y-117800666D02*
X90783676Y-117705428D01*
X90783676Y-117705428D02*
X90878914Y-117610190D01*
X90878914Y-117610190D02*
X90926533Y-117514952D01*
X90640819Y-118705428D02*
X90640819Y-118800666D01*
X90640819Y-118800666D02*
X90688438Y-118895904D01*
X90688438Y-118895904D02*
X90736057Y-118943523D01*
X90736057Y-118943523D02*
X90831295Y-118991142D01*
X90831295Y-118991142D02*
X91021771Y-119038761D01*
X91021771Y-119038761D02*
X91259866Y-119038761D01*
X91259866Y-119038761D02*
X91450342Y-118991142D01*
X91450342Y-118991142D02*
X91545580Y-118943523D01*
X91545580Y-118943523D02*
X91593200Y-118895904D01*
X91593200Y-118895904D02*
X91640819Y-118800666D01*
X91640819Y-118800666D02*
X91640819Y-118705428D01*
X91640819Y-118705428D02*
X91593200Y-118610190D01*
X91593200Y-118610190D02*
X91545580Y-118562571D01*
X91545580Y-118562571D02*
X91450342Y-118514952D01*
X91450342Y-118514952D02*
X91259866Y-118467333D01*
X91259866Y-118467333D02*
X91021771Y-118467333D01*
X91021771Y-118467333D02*
X90831295Y-118514952D01*
X90831295Y-118514952D02*
X90736057Y-118562571D01*
X90736057Y-118562571D02*
X90688438Y-118610190D01*
X90688438Y-118610190D02*
X90640819Y-118705428D01*
X90640819Y-119657809D02*
X90640819Y-119753047D01*
X90640819Y-119753047D02*
X90688438Y-119848285D01*
X90688438Y-119848285D02*
X90736057Y-119895904D01*
X90736057Y-119895904D02*
X90831295Y-119943523D01*
X90831295Y-119943523D02*
X91021771Y-119991142D01*
X91021771Y-119991142D02*
X91259866Y-119991142D01*
X91259866Y-119991142D02*
X91450342Y-119943523D01*
X91450342Y-119943523D02*
X91545580Y-119895904D01*
X91545580Y-119895904D02*
X91593200Y-119848285D01*
X91593200Y-119848285D02*
X91640819Y-119753047D01*
X91640819Y-119753047D02*
X91640819Y-119657809D01*
X91640819Y-119657809D02*
X91593200Y-119562571D01*
X91593200Y-119562571D02*
X91545580Y-119514952D01*
X91545580Y-119514952D02*
X91450342Y-119467333D01*
X91450342Y-119467333D02*
X91259866Y-119419714D01*
X91259866Y-119419714D02*
X91021771Y-119419714D01*
X91021771Y-119419714D02*
X90831295Y-119467333D01*
X90831295Y-119467333D02*
X90736057Y-119514952D01*
X90736057Y-119514952D02*
X90688438Y-119562571D01*
X90688438Y-119562571D02*
X90640819Y-119657809D01*
X90974152Y-120419714D02*
X91640819Y-120419714D01*
X91069390Y-120419714D02*
X91021771Y-120467333D01*
X91021771Y-120467333D02*
X90974152Y-120562571D01*
X90974152Y-120562571D02*
X90974152Y-120705428D01*
X90974152Y-120705428D02*
X91021771Y-120800666D01*
X91021771Y-120800666D02*
X91117009Y-120848285D01*
X91117009Y-120848285D02*
X91640819Y-120848285D01*
X91117009Y-121657809D02*
X91117009Y-121324476D01*
X91640819Y-121324476D02*
X90640819Y-121324476D01*
X90640819Y-121324476D02*
X90640819Y-121800666D01*
X66050619Y-32458819D02*
X66622047Y-32458819D01*
X66336333Y-32458819D02*
X66336333Y-31458819D01*
X66336333Y-31458819D02*
X66431571Y-31601676D01*
X66431571Y-31601676D02*
X66526809Y-31696914D01*
X66526809Y-31696914D02*
X66622047Y-31744533D01*
X65431571Y-31458819D02*
X65336333Y-31458819D01*
X65336333Y-31458819D02*
X65241095Y-31506438D01*
X65241095Y-31506438D02*
X65193476Y-31554057D01*
X65193476Y-31554057D02*
X65145857Y-31649295D01*
X65145857Y-31649295D02*
X65098238Y-31839771D01*
X65098238Y-31839771D02*
X65098238Y-32077866D01*
X65098238Y-32077866D02*
X65145857Y-32268342D01*
X65145857Y-32268342D02*
X65193476Y-32363580D01*
X65193476Y-32363580D02*
X65241095Y-32411200D01*
X65241095Y-32411200D02*
X65336333Y-32458819D01*
X65336333Y-32458819D02*
X65431571Y-32458819D01*
X65431571Y-32458819D02*
X65526809Y-32411200D01*
X65526809Y-32411200D02*
X65574428Y-32363580D01*
X65574428Y-32363580D02*
X65622047Y-32268342D01*
X65622047Y-32268342D02*
X65669666Y-32077866D01*
X65669666Y-32077866D02*
X65669666Y-31839771D01*
X65669666Y-31839771D02*
X65622047Y-31649295D01*
X65622047Y-31649295D02*
X65574428Y-31554057D01*
X65574428Y-31554057D02*
X65526809Y-31506438D01*
X65526809Y-31506438D02*
X65431571Y-31458819D01*
X64479190Y-31458819D02*
X64383952Y-31458819D01*
X64383952Y-31458819D02*
X64288714Y-31506438D01*
X64288714Y-31506438D02*
X64241095Y-31554057D01*
X64241095Y-31554057D02*
X64193476Y-31649295D01*
X64193476Y-31649295D02*
X64145857Y-31839771D01*
X64145857Y-31839771D02*
X64145857Y-32077866D01*
X64145857Y-32077866D02*
X64193476Y-32268342D01*
X64193476Y-32268342D02*
X64241095Y-32363580D01*
X64241095Y-32363580D02*
X64288714Y-32411200D01*
X64288714Y-32411200D02*
X64383952Y-32458819D01*
X64383952Y-32458819D02*
X64479190Y-32458819D01*
X64479190Y-32458819D02*
X64574428Y-32411200D01*
X64574428Y-32411200D02*
X64622047Y-32363580D01*
X64622047Y-32363580D02*
X64669666Y-32268342D01*
X64669666Y-32268342D02*
X64717285Y-32077866D01*
X64717285Y-32077866D02*
X64717285Y-31839771D01*
X64717285Y-31839771D02*
X64669666Y-31649295D01*
X64669666Y-31649295D02*
X64622047Y-31554057D01*
X64622047Y-31554057D02*
X64574428Y-31506438D01*
X64574428Y-31506438D02*
X64479190Y-31458819D01*
X63717285Y-31792152D02*
X63717285Y-32458819D01*
X63717285Y-31887390D02*
X63669666Y-31839771D01*
X63669666Y-31839771D02*
X63574428Y-31792152D01*
X63574428Y-31792152D02*
X63431571Y-31792152D01*
X63431571Y-31792152D02*
X63336333Y-31839771D01*
X63336333Y-31839771D02*
X63288714Y-31935009D01*
X63288714Y-31935009D02*
X63288714Y-32458819D01*
X62479190Y-31935009D02*
X62812523Y-31935009D01*
X62812523Y-32458819D02*
X62812523Y-31458819D01*
X62812523Y-31458819D02*
X62336333Y-31458819D01*
X98575619Y-115262819D02*
X99147047Y-115262819D01*
X98861333Y-115262819D02*
X98861333Y-114262819D01*
X98861333Y-114262819D02*
X98956571Y-114405676D01*
X98956571Y-114405676D02*
X99051809Y-114500914D01*
X99051809Y-114500914D02*
X99147047Y-114548533D01*
X97956571Y-114262819D02*
X97861333Y-114262819D01*
X97861333Y-114262819D02*
X97766095Y-114310438D01*
X97766095Y-114310438D02*
X97718476Y-114358057D01*
X97718476Y-114358057D02*
X97670857Y-114453295D01*
X97670857Y-114453295D02*
X97623238Y-114643771D01*
X97623238Y-114643771D02*
X97623238Y-114881866D01*
X97623238Y-114881866D02*
X97670857Y-115072342D01*
X97670857Y-115072342D02*
X97718476Y-115167580D01*
X97718476Y-115167580D02*
X97766095Y-115215200D01*
X97766095Y-115215200D02*
X97861333Y-115262819D01*
X97861333Y-115262819D02*
X97956571Y-115262819D01*
X97956571Y-115262819D02*
X98051809Y-115215200D01*
X98051809Y-115215200D02*
X98099428Y-115167580D01*
X98099428Y-115167580D02*
X98147047Y-115072342D01*
X98147047Y-115072342D02*
X98194666Y-114881866D01*
X98194666Y-114881866D02*
X98194666Y-114643771D01*
X98194666Y-114643771D02*
X98147047Y-114453295D01*
X98147047Y-114453295D02*
X98099428Y-114358057D01*
X98099428Y-114358057D02*
X98051809Y-114310438D01*
X98051809Y-114310438D02*
X97956571Y-114262819D01*
X97004190Y-114262819D02*
X96908952Y-114262819D01*
X96908952Y-114262819D02*
X96813714Y-114310438D01*
X96813714Y-114310438D02*
X96766095Y-114358057D01*
X96766095Y-114358057D02*
X96718476Y-114453295D01*
X96718476Y-114453295D02*
X96670857Y-114643771D01*
X96670857Y-114643771D02*
X96670857Y-114881866D01*
X96670857Y-114881866D02*
X96718476Y-115072342D01*
X96718476Y-115072342D02*
X96766095Y-115167580D01*
X96766095Y-115167580D02*
X96813714Y-115215200D01*
X96813714Y-115215200D02*
X96908952Y-115262819D01*
X96908952Y-115262819D02*
X97004190Y-115262819D01*
X97004190Y-115262819D02*
X97099428Y-115215200D01*
X97099428Y-115215200D02*
X97147047Y-115167580D01*
X97147047Y-115167580D02*
X97194666Y-115072342D01*
X97194666Y-115072342D02*
X97242285Y-114881866D01*
X97242285Y-114881866D02*
X97242285Y-114643771D01*
X97242285Y-114643771D02*
X97194666Y-114453295D01*
X97194666Y-114453295D02*
X97147047Y-114358057D01*
X97147047Y-114358057D02*
X97099428Y-114310438D01*
X97099428Y-114310438D02*
X97004190Y-114262819D01*
X96242285Y-114596152D02*
X96242285Y-115262819D01*
X96242285Y-114691390D02*
X96194666Y-114643771D01*
X96194666Y-114643771D02*
X96099428Y-114596152D01*
X96099428Y-114596152D02*
X95956571Y-114596152D01*
X95956571Y-114596152D02*
X95861333Y-114643771D01*
X95861333Y-114643771D02*
X95813714Y-114739009D01*
X95813714Y-114739009D02*
X95813714Y-115262819D01*
X95004190Y-114739009D02*
X95337523Y-114739009D01*
X95337523Y-115262819D02*
X95337523Y-114262819D01*
X95337523Y-114262819D02*
X94861333Y-114262819D01*
X76210619Y-114881819D02*
X76782047Y-114881819D01*
X76496333Y-114881819D02*
X76496333Y-113881819D01*
X76496333Y-113881819D02*
X76591571Y-114024676D01*
X76591571Y-114024676D02*
X76686809Y-114119914D01*
X76686809Y-114119914D02*
X76782047Y-114167533D01*
X75591571Y-113881819D02*
X75496333Y-113881819D01*
X75496333Y-113881819D02*
X75401095Y-113929438D01*
X75401095Y-113929438D02*
X75353476Y-113977057D01*
X75353476Y-113977057D02*
X75305857Y-114072295D01*
X75305857Y-114072295D02*
X75258238Y-114262771D01*
X75258238Y-114262771D02*
X75258238Y-114500866D01*
X75258238Y-114500866D02*
X75305857Y-114691342D01*
X75305857Y-114691342D02*
X75353476Y-114786580D01*
X75353476Y-114786580D02*
X75401095Y-114834200D01*
X75401095Y-114834200D02*
X75496333Y-114881819D01*
X75496333Y-114881819D02*
X75591571Y-114881819D01*
X75591571Y-114881819D02*
X75686809Y-114834200D01*
X75686809Y-114834200D02*
X75734428Y-114786580D01*
X75734428Y-114786580D02*
X75782047Y-114691342D01*
X75782047Y-114691342D02*
X75829666Y-114500866D01*
X75829666Y-114500866D02*
X75829666Y-114262771D01*
X75829666Y-114262771D02*
X75782047Y-114072295D01*
X75782047Y-114072295D02*
X75734428Y-113977057D01*
X75734428Y-113977057D02*
X75686809Y-113929438D01*
X75686809Y-113929438D02*
X75591571Y-113881819D01*
X74639190Y-113881819D02*
X74543952Y-113881819D01*
X74543952Y-113881819D02*
X74448714Y-113929438D01*
X74448714Y-113929438D02*
X74401095Y-113977057D01*
X74401095Y-113977057D02*
X74353476Y-114072295D01*
X74353476Y-114072295D02*
X74305857Y-114262771D01*
X74305857Y-114262771D02*
X74305857Y-114500866D01*
X74305857Y-114500866D02*
X74353476Y-114691342D01*
X74353476Y-114691342D02*
X74401095Y-114786580D01*
X74401095Y-114786580D02*
X74448714Y-114834200D01*
X74448714Y-114834200D02*
X74543952Y-114881819D01*
X74543952Y-114881819D02*
X74639190Y-114881819D01*
X74639190Y-114881819D02*
X74734428Y-114834200D01*
X74734428Y-114834200D02*
X74782047Y-114786580D01*
X74782047Y-114786580D02*
X74829666Y-114691342D01*
X74829666Y-114691342D02*
X74877285Y-114500866D01*
X74877285Y-114500866D02*
X74877285Y-114262771D01*
X74877285Y-114262771D02*
X74829666Y-114072295D01*
X74829666Y-114072295D02*
X74782047Y-113977057D01*
X74782047Y-113977057D02*
X74734428Y-113929438D01*
X74734428Y-113929438D02*
X74639190Y-113881819D01*
X73877285Y-114215152D02*
X73877285Y-114881819D01*
X73877285Y-114310390D02*
X73829666Y-114262771D01*
X73829666Y-114262771D02*
X73734428Y-114215152D01*
X73734428Y-114215152D02*
X73591571Y-114215152D01*
X73591571Y-114215152D02*
X73496333Y-114262771D01*
X73496333Y-114262771D02*
X73448714Y-114358009D01*
X73448714Y-114358009D02*
X73448714Y-114881819D01*
X72639190Y-114358009D02*
X72972523Y-114358009D01*
X72972523Y-114881819D02*
X72972523Y-113881819D01*
X72972523Y-113881819D02*
X72496333Y-113881819D01*
D11*
%TO.C,C10*%
X82702420Y-121918000D02*
X82983580Y-121918000D01*
X82702420Y-122938000D02*
X82983580Y-122938000D01*
%TO.C,C9*%
X54227000Y-30887580D02*
X54227000Y-30606420D01*
X55247000Y-30887580D02*
X55247000Y-30606420D01*
%TO.C,C8*%
X92213000Y-119774580D02*
X92213000Y-119493420D01*
X93233000Y-119774580D02*
X93233000Y-119493420D01*
%TO.C,C6*%
X64135580Y-33784000D02*
X63854420Y-33784000D01*
X64135580Y-32764000D02*
X63854420Y-32764000D01*
%TO.C,C5*%
X97409580Y-116760000D02*
X97128420Y-116760000D01*
X97409580Y-115740000D02*
X97128420Y-115740000D01*
%TO.C,C7*%
X74816580Y-115314000D02*
X74535420Y-115314000D01*
X74816580Y-116334000D02*
X74535420Y-116334000D01*
%TD*%
M02*
